%YAML 1.1
%TAG !u! tag:unity3d.com,2011:
--- !u!114 &11400000
MonoBehaviour:
  m_ObjectHideFlags: 0
  m_PrefabParentObject: {fileID: 0}
  m_PrefabInternal: {fileID: 0}
  m_GameObject: {fileID: 0}
  m_Enabled: 1
  m_EditorHideFlags: 0
  m_Script: {fileID: 11500000, guid: 55b7744f0347e86418204358eaba0823, type: 3}
  m_Name: HPPower
  m_EditorClassIdentifier: 
  lifeTime: 10
  Prefab: {fileID: 1533656283721234, guid: fedcc8d20b76d8b42a82450750892ba0, type: 2}
  HP: 10
  Damage: 0
